{
  "links": {
    "current_page": 1,
    "first_page_url": "http://brottsplatskartan.se/api/events?limit=10&area=&location=&type=&page=1",
    "from": 1,
    "last_page": 17443,
    "last_page_url": "http://brottsplatskartan.se/api/events?limit=10&area=&location=&type=&page=17443",
    "next_page_url": "http://brottsplatskartan.se/api/events?limit=10&area=&location=&type=&page=2",
    "path": "http://brottsplatskartan.se/api/events",
    "per_page": 10,
    "prev_page_url": null,
    "to": 10,
    "total": 174425
  },
  "data": [
    {
      "id": 174448,
      "pubdate_iso8601": "2020-09-30T12:05:27+0200",
      "pubdate_unix": "1601460327",
      "title_type": "Misshandel",
      "title_location": "Gävle",
      "description": "Polisen larmades till en adress i Gävle efter att grannar hade hört bråk från en lägenhet.",
      "content": "<p>Polis åker till adressen och sammanträffar med en kvinna som har lättare skador i ansiktet.</p>\n<p>Efter samtal med kvinnan så berättar hon vad som hade inträffat i lägenheten.</p>\n<p>Det var en bekant till kvinnan som hade misshandlat henne och sedan lämnat lägenheten.</p>\n<p>Senare på kvällen ringer kvinnan åter polisen och berättar att mannen har återvänt till henne. Polis åker till platsen och griper mannen klockan 23:55 som misstänkt för misshandel.</p>\n<p>Patrullen håller förhör med den misstänkte och klockan 01:36 anhåller jouråklagare mannen på sannolika skäl för misshandel.</p>\n<p>Förundersökningsledare är åklagare vid Åklagarkammaren i Gävle.</p>",
      "content_formatted": "<p><p>Polis åker till adressen och sammanträffar med en kvinna som har lättare skador i ansiktet.</p></p><p><p>Efter samtal med kvinnan så berättar hon vad som hade inträffat i lägenheten.</p></p><p><p>Det var en bekant till kvinnan som hade misshandlat henne och sedan lämnat lägenheten.</p></p><p><p>Senare på kvällen ringer kvinnan åter polisen och berättar att mannen har återvänt till henne. Polis åker till platsen och griper mannen klockan 23:55 som misstänkt för misshandel.</p></p><p><p>Patrullen håller förhör med den misstänkte och klockan 01:36 anhåller jouråklagare mannen på sannolika skäl för misshandel.</p></p><p><p>Förundersökningsledare är åklagare vid Åklagarkammaren i Gävle.</p></p>",
      "content_teaser": "Polis åker till adressen och sammanträffar med en kvinna som har lättare skador i ansiktet. \n Efter samtal med kvinnan så berättar hon vad som hade inträffat i...",
      "location_string": "Gävle, Gävleborgs län",
      "date_human": "14 timmar sedan",
      "lat": 60.6748796,
      "lng": 17.1412726,
      "viewport_northeast_lat": "60.7411600",
      "viewport_northeast_lng": "17.3043159",
      "viewport_southwest_lat": "60.6345240",
      "viewport_southwest_lng": "17.0749891",
      "administrative_area_level_1": "Gävleborgs län",
      "administrative_area_level_2": null,
      "image": "https://kartbilder.brottsplatskartan.se/styles/basic-preview/static/auto/640x320.jpg?latlng=1&fill=rgba%28255%2C0%2C0%2C.2%29&width=2&stroke=rgba%28255%2C0%2C0%2C.2%29&path=60.7411600%2C17.3043159%7C60.6345240%2C17.3043159%7C60.6345240%2C17.0749891%7C60.7411600%2C17.0749891&padding=0.4",
      "external_source_link": "https://polisen.se/aktuellt/handelser/2020/september/29/29-september-2215-misshandel-gavle/",
      "permalink": "https://brottsplatskartan.se/gavleborgs-lan/misshandel-gavle-174448"
    },
    {
      "id": 174447,
      "pubdate_iso8601": "2020-09-30T12:10:13+0200",
      "pubdate_unix": "1601460613",
      "title_type": "Trafikolycka",
      "title_location": "Landskrona",
      "description": "Personbil och lastbil i kollision, E6.",
      "content": "<p>En olycka har skett på E6 i norrgående körriktning i höjd med Saxtorpsskogen där en lastbil och en personbil kolliderat. Vägen kommer att vara avstängd i norrgående körriktning vid olycksplatsen under räddningsarbetet.</p>\n<p><strong>Uppdatering:</strong> En person är förd till sjukhus med ambulans.</p>\n<p><strong>Rättelse:</strong> Det är lastbilar som kolliderat i samband med olyckan och inte personbilar som den inledande informationen uppgav.</p>",
      "content_formatted": "<p><p>En olycka har skett på E6 i norrgående körriktning i höjd med Saxtorpsskogen där en lastbil och en personbil kolliderat. Vägen kommer att vara avstängd i norrgående körriktning vid olycksplatsen under räddningsarbetet.</p></p><p><p><strong>Uppdatering:</strong> En person är förd till sjukhus med ambulans.</p></p><p><p><strong>Rättelse:</strong> Det är lastbilar som kolliderat i samband med olyckan och inte personbilar som den inledande informationen uppgav.</p></p>",
      "content_teaser": "En olycka har skett på E6 i norrgående körriktning i höjd med Saxtorpsskogen där en lastbil och en personbil kolliderat. Vägen kommer att vara avstängd i norrgå...",
      "location_string": "Saxtorpsskogen, Landskrona, Skåne län",
      "date_human": "58 minuter sedan",
      "lat": 55.8295768,
      "lng": 12.9406288,
      "viewport_northeast_lat": "55.8358433",
      "viewport_northeast_lng": "12.9566362",
      "viewport_southwest_lat": "55.8233093",
      "viewport_southwest_lng": "12.9246214",
      "administrative_area_level_1": "Skåne län",
      "administrative_area_level_2": null,
      "image": "https://kartbilder.brottsplatskartan.se/styles/basic-preview/static/auto/640x320.jpg?latlng=1&fill=rgba%28255%2C0%2C0%2C.2%29&width=2&stroke=rgba%28255%2C0%2C0%2C.2%29&path=55.8358433%2C12.9566362%7C55.8233093%2C12.9566362%7C55.8233093%2C12.9246214%7C55.8358433%2C12.9246214&padding=0.4",
      "external_source_link": "https://polisen.se/aktuellt/handelser/2020/september/30/30-september-1119-trafikolycka-landskrona/",
      "permalink": "https://brottsplatskartan.se/skane-lan/trafikolycka-landskrona-174447"
    },
    {
      "id": 174446,
      "pubdate_iso8601": "2020-09-30T11:21:04+0200",
      "pubdate_unix": "1601457664",
      "title_type": "Inbrott",
      "title_location": "Östersund",
      "description": "Inbrott i företagslokaler på Odenskogs industriområde.",
      "content": "Någon gång mellan eftermiddagen (cirka 17-tiden) på tisdagen och 06:40 i morse utsattes ett företag på Odenskogs industriområde för ett inbrott. Okända gärningspersoner har tagit sig in i lokalerna och tillgripit elektronik. Polisen har varit på plats och utfört en brottsplatsundersökning. En anmälan har upprättats.",
      "content_formatted": "<p><p>Någon gång mellan eftermiddagen (cirka 17-tiden) på tisdagen och 06:40 i morse utsattes ett företag på Odenskogs industriområde för ett inbrott. Okända gärningspersoner har tagit sig in i lokalerna och tillgripit elektronik. Polisen har varit på plats och utfört en brottsplatsundersökning. En anmälan har upprättats. </p></p>",
      "content_teaser": "Någon gång mellan eftermiddagen (cirka 17-tiden) på tisdagen och 06:40 i morse utsattes ett företag på Odenskogs industriområde för ett inbrott. Okända gärnings...",
      "location_string": "Östersund, Jämtlands län",
      "date_human": "5 timmar sedan",
      "lat": 63.1766832,
      "lng": 14.6360681,
      "viewport_northeast_lat": "63.2289599",
      "viewport_northeast_lng": "14.7924026",
      "viewport_southwest_lat": "63.1217461",
      "viewport_southwest_lng": "14.5091640",
      "administrative_area_level_1": "Jämtlands län",
      "administrative_area_level_2": null,
      "image": "https://kartbilder.brottsplatskartan.se/styles/basic-preview/static/auto/640x320.jpg?latlng=1&fill=rgba%28255%2C0%2C0%2C.2%29&width=2&stroke=rgba%28255%2C0%2C0%2C.2%29&path=63.2289599%2C14.7924026%7C63.1217461%2C14.7924026%7C63.1217461%2C14.5091640%7C63.2289599%2C14.5091640&padding=0.4",
      "external_source_link": "https://polisen.se/aktuellt/handelser/2020/september/30/30-september-0641-inbrott-ostersund/",
      "permalink": "https://brottsplatskartan.se/jamtlands-lan/inbrott-ostersund-174446"
    },
    {
      "id": 174445,
      "pubdate_iso8601": "2020-09-30T11:21:06+0200",
      "pubdate_unix": "1601457666",
      "title_type": "Försvunnen person",
      "title_location": "Lund",
      "description": "Polisen söker efter försvunnen man i Dalby.",
      "content": "<p>Polisen söker just nu efter en man i 80-årsåldern i Dalby som anmälts försvunnen. Mannen är cirka 170 cm lång, har grått hår och glasögen. Han ska vara klädd i jeans, grön jacka och svarta tofflor.</p>\n<p><strong>Om du har sett mannen eller vet var han befinner sig, kontakta polisens ledningscentral på telefonnummer 112.</strong></p>",
      "content_formatted": "<p><p>Polisen söker just nu efter en man i 80-årsåldern i Dalby som anmälts försvunnen. Mannen är cirka 170 cm lång, har grått hår och glasögen. Han ska vara klädd i jeans, grön jacka och svarta tofflor.</p></p><p><p><strong>Om du har sett mannen eller vet var han befinner sig, kontakta polisens ledningscentral på telefonnummer 112.</strong></p></p>",
      "content_teaser": "Polisen söker just nu efter en man i 80-årsåldern i Dalby som anmälts försvunnen. Mannen är cirka 170 cm lång, har grått hår och glasögen. Han ska vara klädd i...",
      "location_string": "Dalby, Lund, Skåne län",
      "date_human": "1 timme sedan",
      "lat": 55.6648168,
      "lng": 13.3475569,
      "viewport_northeast_lat": "55.6711098",
      "viewport_northeast_lng": "13.3635643",
      "viewport_southwest_lat": "55.6585228",
      "viewport_southwest_lng": "13.3315495",
      "administrative_area_level_1": "Skåne län",
      "administrative_area_level_2": null,
      "image": "https://kartbilder.brottsplatskartan.se/styles/basic-preview/static/auto/640x320.jpg?latlng=1&fill=rgba%28255%2C0%2C0%2C.2%29&width=2&stroke=rgba%28255%2C0%2C0%2C.2%29&path=55.6711098%2C13.3635643%7C55.6585228%2C13.3635643%7C55.6585228%2C13.3315495%7C55.6711098%2C13.3315495&padding=0.4",
      "external_source_link": "https://polisen.se/aktuellt/handelser/2020/september/30/30-september-1115-forsvunnen-person-lund/",
      "permalink": "https://brottsplatskartan.se/skane-lan/forsvunnen-person-lund-dalby-174445"
    },
    {
      "id": 174444,
      "pubdate_iso8601": "2020-09-30T11:24:07+0200",
      "pubdate_unix": "1601457847",
      "title_type": "Trafikkontroll",
      "title_location": "Skellefteå",
      "description": "Trafikkontroll vid skola på Norrvalla.",
      "content": "<p>Strax innan klockan åtta på onsdagsmorgonen hade polisen en hastighetskontroll utanför en skola på Torsgatan, Norrvalla. Fyra ordningsbot utfärdades för hastighetsöverträdelser. </p>",
      "content_formatted": "<p><p>Strax innan klockan åtta på onsdagsmorgonen hade polisen en hastighetskontroll utanför en skola på Torsgatan, Norrvalla. Fyra ordningsbot utfärdades för hastighetsöverträdelser. </p></p>",
      "content_teaser": "Strax innan klockan åtta på onsdagsmorgonen hade polisen en hastighetskontroll utanför en skola på Torsgatan, Norrvalla. Fyra ordningsbot utfärdades för hastigh...",
      "location_string": "Norrvalla, Torsgatan, Skellefteå, Västerbottens län",
      "date_human": "4 timmar sedan",
      "lat": 64.7572667,
      "lng": 20.9759823,
      "viewport_northeast_lat": "64.7586157",
      "viewport_northeast_lng": "20.9773313",
      "viewport_southwest_lat": "64.7559177",
      "viewport_southwest_lng": "20.9746333",
      "administrative_area_level_1": "Västerbottens län",
      "administrative_area_level_2": null,
      "image": "https://kartbilder.brottsplatskartan.se/styles/basic-preview/static/auto/640x320.jpg?latlng=1&fill=rgba%28255%2C0%2C0%2C.2%29&width=2&stroke=rgba%28255%2C0%2C0%2C.2%29&path=64.7586157%2C20.9773313%7C64.7559177%2C20.9773313%7C64.7559177%2C20.9746333%7C64.7586157%2C20.9746333&padding=0.4",
      "external_source_link": "https://polisen.se/aktuellt/handelser/2020/september/30/30-september-0749-trafikkontroll-skelleftea/",
      "permalink": "https://brottsplatskartan.se/vasterbottens-lan/trafikkontroll-skelleftea-norrvalla-174444"
    },
    {
      "id": 174443,
      "pubdate_iso8601": "2020-09-30T11:30:13+0200",
      "pubdate_unix": "1601458213",
      "title_type": "Trafikolycka",
      "title_location": "Kävlinge",
      "description": "Personbil och lastbil i kollision, E6.",
      "content": "<p>En olycka har skett på E6 i norrgående körriktning i höjd med Saxtorpsskogen där en lastbil och en personbil kolliderat. Vägen kommer att vara avstängd i norrgående körriktning vid olycksplatsen under räddningsarbetet.</p>",
      "content_formatted": "<p><p>En olycka har skett på E6 i norrgående körriktning i höjd med Saxtorpsskogen där en lastbil och en personbil kolliderat. Vägen kommer att vara avstängd i norrgående körriktning vid olycksplatsen under räddningsarbetet.</p></p>",
      "content_teaser": "En olycka har skett på E6 i norrgående körriktning i höjd med Saxtorpsskogen där en lastbil och en personbil kolliderat. Vägen kommer att vara avstängd i norrgå...",
      "location_string": "Saxtorpsskogen, Kävlinge, Skåne län",
      "date_human": "58 minuter sedan",
      "lat": 55.7939999,
      "lng": 13.1104293,
      "viewport_northeast_lat": "55.8080290",
      "viewport_northeast_lng": "13.1518599",
      "viewport_southwest_lat": "55.7786061",
      "viewport_southwest_lng": "13.0795710",
      "administrative_area_level_1": "Skåne län",
      "administrative_area_level_2": null,
      "image": "https://kartbilder.brottsplatskartan.se/styles/basic-preview/static/auto/640x320.jpg?latlng=1&fill=rgba%28255%2C0%2C0%2C.2%29&width=2&stroke=rgba%28255%2C0%2C0%2C.2%29&path=55.8080290%2C13.1518599%7C55.7786061%2C13.1518599%7C55.7786061%2C13.0795710%7C55.8080290%2C13.0795710&padding=0.4",
      "external_source_link": "https://polisen.se/aktuellt/handelser/2020/september/30/30-september-1119-trafikolycka-kavlinge/",
      "permalink": "https://brottsplatskartan.se/skane-lan/trafikolycka-kavlinge-174443"
    },
    {
      "id": 174442,
      "pubdate_iso8601": "2020-09-30T11:07:26+0200",
      "pubdate_unix": "1601456846",
      "title_type": "Kontroll person/fordon",
      "title_location": "Karlskoga",
      "description": "Tjuvfiske Gälleråsen",
      "content": "<p>En person har påkommits med att tjuvfiska vid ett vattendrag i närheten av Gälleråsen. Polis har varit på plats och senare även kunnat identifera tjuvfiskaren. Utredning följer i ärendet.</p>",
      "content_formatted": "<p><p>En person har påkommits med att tjuvfiska vid ett vattendrag i närheten av Gälleråsen. Polis har varit på plats och senare även kunnat identifera tjuvfiskaren. Utredning följer i ärendet.</p></p>",
      "content_teaser": "En person har påkommits med att tjuvfiska vid ett vattendrag i närheten av Gälleråsen. Polis har varit på plats och senare även kunnat identifera tjuvfiskaren....",
      "location_string": "Karlskoga, Örebro län",
      "date_human": "3 timmar sedan",
      "lat": 59.328634,
      "lng": 14.536414,
      "viewport_northeast_lat": "59.3728809",
      "viewport_northeast_lng": "14.6135861",
      "viewport_southwest_lat": "59.2958080",
      "viewport_southwest_lng": "14.4501970",
      "administrative_area_level_1": "Örebro län",
      "administrative_area_level_2": null,
      "image": "https://kartbilder.brottsplatskartan.se/styles/basic-preview/static/auto/640x320.jpg?latlng=1&fill=rgba%28255%2C0%2C0%2C.2%29&width=2&stroke=rgba%28255%2C0%2C0%2C.2%29&path=59.3728809%2C14.6135861%7C59.2958080%2C14.6135861%7C59.2958080%2C14.4501970%7C59.3728809%2C14.4501970&padding=0.4",
      "external_source_link": "https://polisen.se/aktuellt/handelser/2020/september/30/30-september-0840-kontroll-personfordon-karlskoga/",
      "permalink": "https://brottsplatskartan.se/orebro-lan/kontroll-person-fordon-karlskoga-174442"
    },
    {
      "id": 174441,
      "pubdate_iso8601": "2020-09-30T10:45:19+0200",
      "pubdate_unix": "1601455519",
      "title_type": "Trafikolycka,  singel",
      "title_location": "Mark",
      "description": "På länsväg 1609 i Sätila har en lastbil vält.",
      "content": "<p>Personskador oklart. </p>\n<p>Vägen kommer att behöva stängas av under bärgningsarbetet. Troligtvis tom kl. 13.00.</p>",
      "content_formatted": "<p><p>Personskador oklart. </p></p><p><p>Vägen kommer att behöva stängas av under bärgningsarbetet. Troligtvis tom kl. 13.00.</p></p>",
      "content_teaser": "Personskador oklart.  \n Vägen kommer att behöva stängas av under bärgningsarbetet. Troligtvis tom kl. 13.00.",
      "location_string": "Sätila, Mark, Västra Götalands län",
      "date_human": "4 timmar sedan",
      "lat": 57.5425354,
      "lng": 12.4333167,
      "viewport_northeast_lat": "57.5485231",
      "viewport_northeast_lng": "12.4493241",
      "viewport_southwest_lat": "57.5365467",
      "viewport_southwest_lng": "12.4173093",
      "administrative_area_level_1": "Västra Götalands län",
      "administrative_area_level_2": null,
      "image": "https://kartbilder.brottsplatskartan.se/styles/basic-preview/static/auto/640x320.jpg?latlng=1&fill=rgba%28255%2C0%2C0%2C.2%29&width=2&stroke=rgba%28255%2C0%2C0%2C.2%29&path=57.5485231%2C12.4493241%7C57.5365467%2C12.4493241%7C57.5365467%2C12.4173093%7C57.5485231%2C12.4173093&padding=0.4",
      "external_source_link": "https://polisen.se/aktuellt/handelser/2020/september/30/30-september-0727-trafikolycka-singel-mark/",
      "permalink": "https://brottsplatskartan.se/vastra-gotalands-lan/trafikolycka-singel-mark-satila-174441"
    },
    {
      "id": 174440,
      "pubdate_iso8601": "2020-09-30T10:45:29+0200",
      "pubdate_unix": "1601455529",
      "title_type": "Trafikolycka",
      "title_location": "Göteborg",
      "description": "Vid Hjalmar Brantingsplatsen har en cyklist och en personbil kolliderat.",
      "content": "<p>Cyklisten förs till sjukhus med ambulans. Enligt uppgifter från platsen hade hon skadat fötterna.</p>\n",
      "content_formatted": "<p><p>Cyklisten förs till sjukhus med ambulans. Enligt uppgifter från platsen hade hon skadat fötterna.</p></p><p></p>",
      "content_teaser": "Cyklisten förs till sjukhus med ambulans. Enligt uppgifter från platsen hade hon skadat fötterna.",
      "location_string": "Hjalmar Brantingsplatsen, Göteborg, Västra Götalands län",
      "date_human": "4 timmar sedan",
      "lat": 57.720831,
      "lng": 11.953672,
      "viewport_northeast_lat": "57.7221800",
      "viewport_northeast_lng": "11.9550210",
      "viewport_southwest_lat": "57.7194820",
      "viewport_southwest_lng": "11.9523230",
      "administrative_area_level_1": "Västra Götalands län",
      "administrative_area_level_2": null,
      "image": "https://kartbilder.brottsplatskartan.se/styles/basic-preview/static/auto/640x320.jpg?latlng=1&fill=rgba%28255%2C0%2C0%2C.2%29&width=2&stroke=rgba%28255%2C0%2C0%2C.2%29&path=57.7221800%2C11.9550210%7C57.7194820%2C11.9550210%7C57.7194820%2C11.9523230%7C57.7221800%2C11.9523230&padding=0.4",
      "external_source_link": "https://polisen.se/aktuellt/handelser/2020/september/30/30-september-0746-trafikolycka-goteborg/",
      "permalink": "https://brottsplatskartan.se/vastra-gotalands-lan/trafikolycka-goteborg-hjalmar-brantingsplatsen-174440"
    },
    {
      "id": 174439,
      "pubdate_iso8601": "2020-09-30T10:45:39+0200",
      "pubdate_unix": "1601455539",
      "title_type": "Stöld/inbrott",
      "title_location": "Borås",
      "description": "Det är inbrott i ett hus i Hössna, Ulricehamn, och polis kallas till platsen.",
      "content": "<p>Ett vittne som sett personer inne i huset blockerar utfarten med sin bil och när polis kommer till platsen kan två män gripas.</p>\n<p>Godset som de tagit ut från huset återlämnas och de två misstänkta männen som är i 35-40-årsåldern kommer att förhöras.</p>",
      "content_formatted": "<p><p>Ett vittne som sett personer inne i huset blockerar utfarten med sin bil och när polis kommer till platsen kan två män gripas.</p></p><p><p>Godset som de tagit ut från huset återlämnas och de två misstänkta männen som är i 35-40-årsåldern kommer att förhöras.</p></p>",
      "content_teaser": "Ett vittne som sett personer inne i huset blockerar utfarten med sin bil och när polis kommer till platsen kan två män gripas. \n Godset som de tagit ut från hus...",
      "location_string": "Hössna, Ulricehamn, Borås, Västra Götalands län",
      "date_human": "3 timmar sedan",
      "lat": 57.8220668,
      "lng": 13.5301681,
      "viewport_northeast_lat": "57.8280085",
      "viewport_northeast_lng": "13.5461755",
      "viewport_southwest_lat": "57.8161241",
      "viewport_southwest_lng": "13.5141607",
      "administrative_area_level_1": "Västra Götalands län",
      "administrative_area_level_2": null,
      "image": "https://kartbilder.brottsplatskartan.se/styles/basic-preview/static/auto/640x320.jpg?latlng=1&fill=rgba%28255%2C0%2C0%2C.2%29&width=2&stroke=rgba%28255%2C0%2C0%2C.2%29&path=57.8280085%2C13.5461755%7C57.8161241%2C13.5461755%7C57.8161241%2C13.5141607%7C57.8280085%2C13.5141607&padding=0.4",
      "external_source_link": "https://polisen.se/aktuellt/handelser/2020/september/30/30-september-0842-stoldinbrott-boras/",
      "permalink": "https://brottsplatskartan.se/vastra-gotalands-lan/stold-inbrott-boras-hossna-ulricehamn-174439"
    }
  ]
}
